{"componentChunkName":"component---src-templates-posts-tsx","path":"/posts","result":{"data":{"site":{"siteMetadata":{"title":"AGG"}},"allMdx":{"pageInfo":{"currentPage":1,"hasNextPage":true,"hasPreviousPage":false,"itemCount":10,"pageCount":5,"perPage":10,"totalCount":43},"nodes":[{"excerpt":"起因 2021年1月23日 pip 更新的21.x的版本停止了对 python2 的支持，这导致新入手 Mac 的朋友安装 pip 变成一件及其困难的事情。 看本文的时候不要着急，别看见命令就执行，看完再说。 正确的姿势 错误的尝试 当你在尝试在 Big Sur 上安装 pip…","frontmatter":{"description":"2021年1月23日 pip 更新的21.x的版本停止了对 python2 的支持，这导致新入手 Mac 的朋友安装 pip 变成一件及其困难的事情。","date":"June 17, 2021","title":"2021年如何在OSX上安装PIP2"},"id":"bd72926d-47a2-5101-bcbd-8918acca6b48","fields":{"slug":"/2021年如何在OSX上安装PIP2/"}},{"excerpt":"安装 由于我自己使用的是 OSX，所以这里我只介绍 OSX 中的安装方式。 OSX 中的软件管理神器  HomeBrew  大家肯定不陌生，陌生的话就熟悉一下 如果感兴趣的话，还可以了解一下  Oh-My-Fish 。 设置 fish 为默认 Shell 由于 fish…","frontmatter":{"description":"Fish 是\"the friendly interactive shell\"的简称，以方便易用著称，相较于其他 Shell, Fish 基本可以做到零配置可用。","date":"June 10, 2021","title":"fish 使用笔记"},"id":"dc0c7daf-d304-5bc9-8c42-232ca93d5c1e","fields":{"slug":"/Fish使用笔记/"}},{"excerpt":"Cron 简介 Cron  是类 Unix 系统中用于执行定时任务的工具，我们可以通过  cron  在固定时间、日期、间隔下，运行定期任务（可以是命令和脚本）。 cron  最常使用的是服务器运维和管理方向，当然也可用于其他地方，如：定期下载文件等。 The origin of…","frontmatter":{"description":"Cron 是类 Unix 系统中用于执行定时任务的工具，我们可以通过 Cron 在固定时间、日期、间隔下，运行定期任务（可以是命令和脚本）。Cron 最常使用的是服务器运维和管理方向，当然也可用于其他地方，如：定期下载文件等。","date":"April 29, 2021","title":"定时任务 cron 使用说明"},"id":"f3739b7c-d861-5f72-a3de-aa39477f4407","fields":{"slug":"/定时任务CRON使用说明/"}},{"excerpt":"本站使用的是 Gatsby.js，其中使用了 Prismjs 的代码高亮，这里对支持的语言做一个简单的记录，以备查询。","frontmatter":{"description":"本站使用的是 Gatsby.js，其中使用了 Prismjs 的代码高亮，这里对支持的语言做一个简单的记录，以备查询。","date":"April 14, 2021","title":"Prismjs 代码高亮支持语言列表"},"id":"08fa2569-36d4-5f0e-b24c-9aeb112cf3b0","fields":{"slug":"/Prismjs-Highlight-Supported-Language-List/"}},{"excerpt":"这个博客站是我自己用 Gatsby 随便拼凑了一下造出来的，前几天发现好久都没有更新博客了，心里还是很愧疚的 🤣，那就更新一篇吧。 之前用 Gatsby 写博客要么是在 OS 系统下，要么是在 Linux 系统下，从来没用过 Windows…","frontmatter":{"description":"借助 GitHub Actions，可以直接从 GitHub 构建、测试和部署代码，轻松实现所有软件工作流程的自动化。","date":"April 12, 2021","title":"GitHub Actions 入门"},"id":"6df6b8d0-890e-5d7c-b9dc-5d4ceb169b11","fields":{"slug":"/GithubActions入门/"}},{"excerpt":"HTTP 协议无状态的说明（马什么梅？什么冬梅？） HTTP 协议属于无状态协议，在客户端使用 HTTP…","frontmatter":{"description":null,"date":"March 29, 2021","title":"HTTP 会话机制及 JWT 深入浅出"},"id":"4c393b52-d2c6-585f-9f86-988538536dc6","fields":{"slug":"/HTTP会话机制及JWT原理浅析/"}},{"excerpt":"无头服务器（Headless Server），是指没有显示器、键盘、鼠标等其他外设的电脑。无头电脑一般是通过网络进行控制的。举个例子，你可以想象一下数据中心中放在服务器支架上提供 web 服务的刀片服务器，它们就是所谓的无头服务器。 \"Headless…","frontmatter":{"description":"无头服务器（Headless Server），是指没有显示器、键盘、鼠标等其他外设的电脑。","date":"November 10, 2020","title":"Headless Server 是个什么东西？"},"id":"88bfea15-82ae-5abb-a297-c3772816b6fc","fields":{"slug":"/Headless-Server-是什么意思？/"}},{"excerpt":"Trojan 原理简介 最简单来讲， Trojan 是通过 HTTPS 的方式进行穿墙操作的， 也就是所有的请求， 先通过 Trojan 客户端加工之后， 以正常 HTTPS 请求的方式发往墙外服务器， 然后在 Trojan…","frontmatter":{"description":"Trojan 是目前比较便捷且可靠的扶墙工具， 但是其本身工作方式会导致在使用 Trojan 的同时， 多 HTTPS 域名部署会是一个小问题， 本文带你解决这个问题。","date":"August 13, 2020","title":"使用Trojan 的情况下多个 HTTPS 域名部署方案"},"id":"f25bf5ad-eef6-5788-a8ba-f7e0d464f343","fields":{"slug":"/trojan-https-多域名部署方案/"}},{"excerpt":"原文链接  http://www.pgpi.org/doc/pgpintro 但是原文网址已经无法访问了，可以通过 https://web.archive.org…","frontmatter":{"description":"当凯撒大帝要给自己的将军们传递信息的时候， 他并不相信自己的信使。所以他就把信中所有的字母都向后移动 3 位， A 替换成了 D，B 替换成了 E， 以此类推。 只有知道字母需要“偏移 3 位”这个规则的人，才能解密他的信息。","date":"July 29, 2020","title":"PGP 是怎么工作的"},"id":"acbb8adf-a9ae-5e5d-930e-5e88c5cdb889","fields":{"slug":"/PGP-是怎么工作的/"}},{"excerpt":"作者：MongoDB 首席技术支持工程师 William Zola 这将是我们在 MongoDB…","frontmatter":{"description":"设计 MongoDB Schema 的 6 条经验准则第三部分。","date":"July 22, 2020","title":"设计 MongoDB Schema 的 6 条经验准则：Part 3"},"id":"98460f5f-1103-5968-b171-cc578b395613","fields":{"slug":"/设计-MongoDB-Schema-的-6-条经验准则-Part-3/"}}]}},"pageContext":{"limit":10,"skip":0,"numPages":5,"currentPage":1}},"staticQueryHashes":["2786614800","2841359383","3828236571"]}