{"componentChunkName":"component---src-templates-posts-tsx","path":"/posts/3","result":{"data":{"site":{"siteMetadata":{"title":"AGG"}},"allMdx":{"pageInfo":{"currentPage":3,"hasNextPage":true,"hasPreviousPage":true,"itemCount":10,"pageCount":5,"perPage":10,"totalCount":43},"nodes":[{"excerpt":"CentOS中默认没有MySQL的 yum 源，直接使用 yum install mysql-community-server  会报错。 下面记录使用 yum 安装 MySQL 的详细步骤： 第一步：下载并安装 MySQL 源 yum-repo-mysql…","frontmatter":{"description":"CentOS中默认没有MySQL的yum源，直接使用yum install mysql-community-server会报错，本文介绍如何使用yum安装MySQL","date":"May 07, 2019","title":"CentOS使用yum安装MySQL"},"id":"a967576f-2193-5279-b280-75a9a4c389ca","fields":{"slug":"/CentOS使用yum安装MySQL/"}},{"excerpt":"一般公司都需要有自己的私有源代码托管服务，而SVN这种东西又不太好用，应该算是已经过时了吧（我自己瞎BB一下就好，求大家别打脸）。\nGitHub挺好用的，但是服务器再国外，而且创建私有库是需要软妹币的。\nGitLab也可以用来部署私有Git…","frontmatter":{"description":"简单的介绍一款极易搭建的自助 Git 服务: Gogs的安装和使用","date":"March 12, 2019","title":"CentOS部署Gogs-搭建私有Git服务器"},"id":"2a8f97c2-0799-5837-ab94-2f6e68d5f4f6","fields":{"slug":"/CentOS部署Gogs-搭建私有Git服务器/"}},{"excerpt":"Kali 是 Offensive Security公司 开发的基于 Debian 的 Linux 发行版。它的目标就是为了简单：在一个实用的工具包里尽可能多的包含渗透和审计工具。Kali 实现了这个目标。大多数做安全测试的开源工具都被囊括在内。 Kali Linux…","frontmatter":{"description":"本文记录Kali Linux可用软件源汇总","date":"February 24, 2019","title":"Kali Linux可用软件源汇总"},"id":"e5eb8282-3355-52ed-a6e2-938d3672e42b","fields":{"slug":"/Kali Linux可用软件源汇总/"}},{"excerpt":"终端特殊字符实现清屏和颜色控制等操作 在使用node.js编写命令行工具的时候，想要写一个命令行的工具条，然后需要对当前行进行清除操作，在反复查阅资料后发现，在终端内进行清屏等操作可以利用向终端输出特殊字符来实现。 颜色控制 以node.js…","frontmatter":{"description":"在使用node.js编写命令行工具的时候，想要写一个命令行的工具条，然后需要对当前行进行清除操作，在反复查阅资料后发现，在终端内进行清屏等操作可以利用向终端输出特殊字符来实现。","date":"October 25, 2018","title":"终端特殊字符实现清屏和颜色控制等操作"},"id":"6fa1e662-de2a-531f-9232-71d86261a8c1","fields":{"slug":"/终端特殊字符实现清屏和颜色控制等操作/"}},{"excerpt":"变量声明- let、const let ES6 新增了let命令，用来声明变量。它的用法类似于var，但是所声明的变量，只在let命令所在的代码块内有效。 let 特点： 1 块级作用域（ES6） 2 先声明再使用 3 不允许重复声明 const const…","frontmatter":{"description":"ES6的普及度越来越高，本文主要介绍ES6中最常见的内容及其使用方式。","date":"January 22, 2018","title":"ES6常用内容介绍"},"id":"0fddfd81-f951-5cb5-a01a-ec93bbe8256a","fields":{"slug":"/ES6常用内容介绍/"}},{"excerpt":"CentOS终端中文乱码的解决方案 在使用ssh连接CentOS的时候，发现终端中出现中文乱码的问题，记录一下解决方案 问题描述 当ssh连接后，终端中显示如下： 解决方案 编辑 /etc/enviroment 文件，加入语言设置即可 添加如下内容","frontmatter":{"description":"在使用ssh连接CentOS的时候，发现终端中出现中文乱码的问题，记录一下解决方案","date":"April 06, 2017","title":"CentOS终端中文乱码的解决方案"},"id":"9f781be0-f975-504a-afe3-88ed8132ebac","fields":{"slug":"/CentOS终端中文乱码的解决方案/"}},{"excerpt":"CentOS7安装Nginx Step One-添加Nginx源 命令行中输入如下命令，添加Nginx源 Step Two-安装Nginx Step Three-启动Nginx Step Four-配置防火墙规则 如果使用的是防火墙 如果是用的是iptables则手动添加端口规则","frontmatter":{"description":"CentOS7安装Nginx","date":"December 22, 2016","title":"CentOS7安装Nginx"},"id":"5053fce2-942d-5b2a-b3f3-1da15714f39b","fields":{"slug":"/CentOS7安装Nginx/"}},{"excerpt":"第一种方式 yum自带源中没有Node.js,所以首先要获取Node.js资源： 获取完成后，执行如下代码 安装完成之后使用如下指令测试安装是否成功 第二种方式 使用已经编译好的源码 去Node.js官方网站直接下载即可 由于是.xz格式的文件，需要用如下命令将其转换为tar…","frontmatter":{"description":"今天尝试着在CentOS7下安装Node.js，本想省事儿，直接使用了yum安装，但是后来发现使用yum安装的Node.js版本太低了，所以经历了一番波折。记录一下。","date":"November 22, 2016","title":"CentOS安装Node.js"},"id":"1c856e52-d2b5-5885-ba68-78ae91d9deea","fields":{"slug":"/CentOS安装Node-js/"}},{"excerpt":"…","frontmatter":{"description":"深拷贝和浅拷贝在很多语言中都会涉及到，在JavaScript当中，没有现成的可以直接实现深拷贝的方法，虽然我们可以使用jQuery当中提供的`extend`方法，但是这个方法有一定的局限性，所以本文主要研究JavaScript当中深拷贝的实现。","date":"October 08, 2016","title":"JavaScript深拷贝实现"},"id":"3fcdb1e9-9a34-5bc2-a7ba-0e121fa0e860","fields":{"slug":"/JavaScript深拷贝实现/"}},{"excerpt":"架设VPN服务器真不是件容易的事儿，之前尝试了 OpenVPN ，满心欢喜的搭建好之后发现被墙了，那个失落感。。。后来又不断的爬帖子，找到了使用 Obfsproxy 混淆 OpenVPN 的招，但是经过尝试之后，还是不行。 之前咨询VPS…","frontmatter":{"description":"之前使用OpenVPN失败，之后又尝试了OpenVPN+Obfs，还是失败，这次我们来试试ShadowSocks!!!","date":"September 29, 2016","title":"CentOS 7 Shadowsocks 安装"},"id":"f03eac49-f994-57a3-b018-f1d09f859257","fields":{"slug":"/CentOS-7-Shadowsocks-安装/"}}]}},"pageContext":{"limit":10,"skip":20,"numPages":5,"currentPage":3}},"staticQueryHashes":["2786614800","2841359383","3828236571"]}