{"componentChunkName":"component---src-templates-posts-tsx","path":"/posts/2","result":{"data":{"site":{"siteMetadata":{"title":"AGG"}},"allMdx":{"pageInfo":{"currentPage":2,"hasNextPage":true,"hasPreviousPage":true,"itemCount":10,"pageCount":5,"perPage":10,"totalCount":43},"nodes":[{"excerpt":"\n作者：MongoDB 首席技术支持工程师 William Zola 这是我们 在 MongoDB 中建立“一对多”关系 的第二站。在上一部分中，我们介绍了三种基本的 Schema…","frontmatter":{"description":"设计 MongoDB Schema 的 6 条经验准则第二部分。","date":"July 18, 2020","title":"设计 MongoDB Schema 的 6 条经验准则：Part 2"},"id":"53afcb4e-2d4e-519d-885b-1dadec41a2bc","fields":{"slug":"/设计-MongoDB-Schema-的-6-条经验准则-Part-2/"}},{"excerpt":"\n作者：MongoDB 首席技术支持工程师 William Zola “我用SQL很长时间了, 但是 MongoDB 对我而言算是一个新东西。在 MongoDB 里面我该怎么处理 一对多 的关系呢？”这是我在 MongoDB…","frontmatter":{"description":"MongoDB 是一款非常不错的 NoSQL 数据库，但是大部分用惯的了 SQL 的程序员在使用 MongoDB 的时候，都是带着 SQL 的思维方式在使用 MongoDB，这样使用其实并不能发挥 MongoDB 的自身优势，而且在网络上关于如何使用 MongoDB 的文章大部分都只是讲 CRUD 操作，关于如何进行 Schema 设计的文章少之又少。本文将解决你在设计 MongoDB Schema 时的疑惑。","date":"July 17, 2020","title":"设计 MongoDB Schema 的 6 条经验准则：Part 1"},"id":"4da96401-7bda-5b83-8d0e-252623e462cb","fields":{"slug":"/设计-MongoDB-Schema-的-6-条经验准则-Part-1/"}},{"excerpt":"今天尝试给自己的树莓派 3B+ 装了 ArchLinux，但是装好之后 pacman 安装软件各种慢，发现是软件源的问题，就尝试网上找了一些相应的国内软件源，配置好之后，又各种报错404。  树莓派安装的是 Arm 版的 ArchLinux， 所以软件源也应该找相应 Arm…","frontmatter":{"description":null,"date":"March 23, 2020","title":"ArchLinux Arm 可用的国内软件源"},"id":"4b1cecac-31ea-5968-b82d-f55ace958267","fields":{"slug":"/ArchLinux可用的国内软件源/"}},{"excerpt":"OpenWrt 概述 这东西到底能干啥？我为什么要费这么大劲刷这个玩意儿？ 大白话，这东西是一个路由器固件（可以理解为操作系统），可以给你提供一个可定制化的路由器，你可以做DDNS、NAS、DLNA、FTP、Aria2、Global Ladder…","frontmatter":{"description":"最近这几天连着好几个晚上一直在折腾OpenWrt，好累，这里把方法，和遇到的坑，都记录一下。","date":"March 17, 2020","title":"树莓派刷OpenWrt-获取固件"},"id":"db9c82d2-a8ff-5e04-b117-0b4c91efcee3","fields":{"slug":"/斐讯K2刷OpenWrt+树莓派刷OpenWrt-01/"}},{"excerpt":"Hooks 是 React 很出色的一个功能更新。它极大的简化了之前在类组件中必须拆分到各个声明周期中的逻辑。 但是，Hooks…","frontmatter":{"description":"“防抖”和“节流”是我们前端开发中很常用的两个功能，那么如何在 React 中使用节流和防抖并将他们抽象成 React Hooks 呢？这篇文章将为大家揭晓。","date":"December 01, 2019","title":"如何在 React 中使用节流和防抖并将他们抽象成 Hooks"},"id":"5c322057-5f22-5501-9da5-38065de9d83a","fields":{"slug":"/如何在-React-中使用节流和防抖并将他们抽象成-Hooks/"}},{"excerpt":"\n\"Hooks 到底是个啥玩意儿？？？\" 你是不是有这样的疑惑？在你自认为已经了解了差不多 React 所有的内容的时候，Hooks…","frontmatter":{"description":"Hooks 到底是个啥玩意儿？？？","date":"November 27, 2019","title":"给新手看的 React Hooks 教程"},"id":"50cc679e-fa34-5992-8e10-723e4fcd2fcc","fields":{"slug":"/给新手看的React-Hooks教程/"}},{"excerpt":"构造函数中调用的  this._init  是在哪里定义的呢？正如我们所看到的，构造函数内部并未对这个  ._init  方法进行定义。\n快速进行全局搜索源码可以发现  ._init  方法是在名为  initMixin  的函数中添加到  Vue.prototype…","frontmatter":{"description":"本系列文章详细介绍了Vue.js源代码，对其中的JavaScript代码进行了详细的说明。 并且尝试将概念分解为JavaScript初学者可以理解的水平。","date":"August 02, 2019","title":"深入了解Vue.js源码(#2-initMixin-part1)"},"id":"bce0390e-fcc9-5ee6-82de-0159905f5544","fields":{"slug":"/深入了解Vue-js源码-2-initMixin/"}},{"excerpt":"","frontmatter":{"description":"本文旨在一步步的指引大家成为一个现代前端开发人员。路线图的目的是让大家对前端技能有宏观的了解，在大家对接下来要学习的内容感到困惑时提供方向，而不是鼓励大家选择时髦的东西，大家会逐渐理解为什么一种工具比另一种工具更适合某些情况，一定要记住，时髦从来都不是工作的关键。","date":"August 01, 2019","title":"前端技能路线图-2019"},"id":"f3d549fd-6c7c-5760-8a8d-4c83dcc98fa6","fields":{"slug":"/前端技能路线图-2019/"}},{"excerpt":"题目 给定一个整数数组  nums  和一个目标值  target…","frontmatter":{"description":"给定一个整数数组 nums 和一个目标值 target，请你在该数组中找出和为目标值的那 两个 整数，并返回他们的数组下标。","date":"July 23, 2019","title":"LeetCode刷题系列-两数之和"},"id":"3cb743fe-eac6-51ff-93fb-404626690459","fields":{"slug":"/LeetCode刷题系列-两数之和/"}},{"excerpt":"本系列文章详细介绍了Vue.js源代码，对其中的JavaScript代码进行了详细的说明。 并且尝试将概念分解为JavaScript初学者可以理解的水平。 Vue 构造函数  Vue 实例是深入了解 Vue.js 源代码的最合适的切入点。 正如 Vue.js…","frontmatter":{"description":"本系列文章详细介绍了Vue.js源代码，对其中的JavaScript代码进行了详细的说明。 并且尝试将概念分解为JavaScript初学者可以理解的水平。","date":"May 07, 2019","title":"深入了解Vue.js源码(#1-Vue构造函数)"},"id":"343e3581-d087-57cc-b947-a295b4db3081","fields":{"slug":"/深入了解Vue-js源码-1/"}}]}},"pageContext":{"limit":10,"skip":10,"numPages":5,"currentPage":2}},"staticQueryHashes":["2786614800","2841359383","3828236571"]}