{"componentChunkName":"component---src-templates-posts-tsx","path":"/posts/5","result":{"data":{"site":{"siteMetadata":{"title":"AGG"}},"allMdx":{"pageInfo":{"currentPage":5,"hasNextPage":false,"hasPreviousPage":true,"itemCount":3,"pageCount":5,"perPage":10,"totalCount":43},"nodes":[{"excerpt":"问题发现 最近写WinForm程序的时候遇见一个问题，就是在拖动窗体改变大小的时候，窗体闪烁会非常严重。 网上找的解决方案都是说用 双缓冲 进行处理。 双缓冲 在图形图像处理编程过程中，双缓冲是一种基本的技术，如果窗体在响应OnPaint…","frontmatter":{"description":"最近写WinForm程序的时候遇见一个问题，就是在拖动窗体改变大小的时候，窗体闪烁会非常严重。","date":"April 01, 2014","title":"C#解决WinForm在改变大小时闪烁问题"},"id":"e9e0656d-85e1-55da-8575-9df85516a4c1","fields":{"slug":"/C-解决WinForm在改变大小时闪烁问题/"}},{"excerpt":"在MVC中，我们会遇到这样的场景： 每一页中需要都显示地区信息，这些地区信息都是存储在数据库当中的。 为了方便使用，我们将地区信息在模板页中显示，问题来了，怎么在视图母版页面里从数据库检索这些地区信息？ 直接在视图中操作数据库检索数据？ 这样的确很方便，但是这样就违反了MVC…","frontmatter":{"description":"如果在当前页和母版页之间相互传递数据呢？本篇主要讲解如何在母版页内给其他页面传递数据！","date":"March 31, 2014","title":"ASP.NET MVC给母版页传递数据"},"id":"01f1986b-398f-5e77-aee9-4cfc25342bfd","fields":{"slug":"/ASP-NET-MVC给母版页传递数据/"}},{"excerpt":"打开wordpress根目录下的wp-config.php文件\n找到如下： 在下面增加如下代码即可： 最后再wp-content文件夹下新建个temp文件夹，更新。","frontmatter":{"description":null,"date":"March 21, 2014","title":"WordPress插件安装时Missing archive file"},"id":"3556c983-ad0f-5719-b0d8-93bed02d5f9b","fields":{"slug":"/WordPress插件安装时Missing-archive-file/"}}]}},"pageContext":{"limit":10,"skip":40,"numPages":5,"currentPage":5}},"staticQueryHashes":["2786614800","2841359383","3828236571"]}