{"componentChunkName":"component---src-templates-posts-tsx","path":"/posts/4","result":{"data":{"site":{"siteMetadata":{"title":"AGG"}},"allMdx":{"pageInfo":{"currentPage":4,"hasNextPage":true,"hasPreviousPage":true,"itemCount":10,"pageCount":5,"perPage":10,"totalCount":43},"nodes":[{"excerpt":"由于GFW如神一般的存在，使用局域网的我们不得不尝试去做一些事情，让自己接触外面的世界。\n外面的世界很精彩，里面的世界很无奈。 由于前几天把所有东西从香港VPS搬到了Tokyo VPS，之前在windows下架设的VPN也就不能再用了。 这次架设VPN是在CentOS…","frontmatter":{"description":"本文主要讲述如何在Linux中架设OpenVPN服务器","date":"September 20, 2016","title":"VPS架设OpenVPN服务器"},"id":"75615e1a-0294-5ee7-9920-3ccd69082413","fields":{"slug":"/VPS架设OpenVPN服务器/"}},{"excerpt":"JavaScript是解释型的语言，但是他并不是真的在运行的时候逐句的往下解析执行。 我们来看下面这个例子： 在上面这段代码中，函数func的调用是在其声明之前，如果说JavaScript…","frontmatter":{"description":"本文主要记录JavaScript中的预解析机制，以及在预解析机制中，需要注意的一些问题。","date":"September 19, 2016","title":"JavaScript预解析"},"id":"975311fc-47a8-59dd-acf6-e4a29adbf962","fields":{"slug":"/JavaScript预解析/"}},{"excerpt":"CentOS7使用的防火墙默认为firewalle,本篇文章主要讲述如何在CentOS7中安装和使用iptables防火墙。 安装iptable iptable-service 禁用/停止自带的firewalld服务 设置现有规则 其他规则设定 保存规则设定 开启iptables…","frontmatter":{"description":"CentOS7使用的防火墙默认为firewalle,本篇文章主要讲述如何在CentOS7中安装和使用iptables防火墙。","date":"September 18, 2016","title":"CentOS7 iptables配置"},"id":"a548f92d-c49f-5228-9813-ff0de7cac5b3","fields":{"slug":"/CentOS7-iptables配置/"}},{"excerpt":"Block机制详解 我们知道在 Block 使用中， Block 内部能够读取外部局部变量的值。但我们需要改变这个变量的值时，我们需要给它附加上 __block 修饰符。 __block 另外一个比较多的使用场景是，为了避免某些情况下Block…","frontmatter":{"description":"我们知道在Block使用中，Block内部能够读取外部局部变量的值。但我们需要改变这个变量的值时，我们需要给它附加上`__block`修饰符。","date":"April 06, 2015","title":"Block机制详解"},"id":"649b130e-983d-5d9d-a4f1-2226347525fd","fields":{"slug":"/Block机制详解/"}},{"excerpt":"在开发中经常会遇到需要进行URLEnCode和URLDeCode的状况，在类似于PHP、.NET、Python的一些web开发语言中对URL En/DeCode都有很好的实现。\nJavaScript中也可以通过 encodeURI, encodeURIComponent…","frontmatter":{"description":"在开发中经常会遇到需要进行URLEnCode和URLDeCode的状况，在类似于PHP、.NET、Python的一些web开发语言中对URL En/DeCode都有很好的实现。JavaScript中也可以通过 encodeURI, encodeURIComponent 实现UTF-8编码的 URL En/DeCode。","date":"January 08, 2015","title":"JavaScript URL ANSI编码EnCode DeCode实现"},"id":"dfff4c0f-0172-5486-989d-718159f3be71","fields":{"slug":"/JavaScript-URL-ANSI编码EnCode-DeCode实现/"}},{"excerpt":"JS原生Ajax ajax ：一种请求数据的方式，不需要刷新整个页面。\n ajax 的技术核心是 XMLHttpRequest 对象。\n ajax 请求过程：创建 XMLHttpRequest…","frontmatter":{"description":"本文主要讲述如何是用原生JavaScript实现ajax，jsonp以及DOM加载完成事件！","date":"January 07, 2015","title":"原生JS实现AJAX、JSONP及DOM加载完成事件"},"id":"bf6fc81f-c1e2-5875-8f27-1651668b954c","fields":{"slug":"/原生JS实现AJAX、JSONP及DOM加载完成事件/"}},{"excerpt":"在JQuery中，对CheckBox的操作分两个阶段，一个是JQuery1.6之前的版本，一个是1.6之后的版本 在1.6之前，我们这么做： 但是细心的同学会发现，在jQuery1.6之后，如果还像上面这么做，那肯定会出问题： \n $('#checkbox').attr…","frontmatter":{"description":null,"date":"September 11, 2014","title":"jQuery中的prop和attr"},"id":"80e4f918-d00d-5601-8fd2-b93250e20bb7","fields":{"slug":"/jQuery中的prop和attr/"}},{"excerpt":"同事昨天入手一个ASUS F450V，预装的Windows8.0，然后硬盘分区只有两个，只有C、D两个盘符，一般人都习惯分好几盘符对日常的应用程序以及文件进行管理，所以他决定重装系统。\n我不出意外的接到了这个光荣而艰巨的使命，本以为就跟往常一样，只要插上硬盘，进入PE…","frontmatter":{"description":null,"date":"April 30, 2014","title":"UEFI BIOS下Windows系统的安装"},"id":"e1574e6c-5821-574d-9cfa-0fe65da8d32e","fields":{"slug":"/UEFI-BIOS下Windows系统的安装/"}},{"excerpt":"有的时候我们会遇到这样的问题： 把类的属性名称配置到配置文件中，然后需要通过这个属性名称获取当前实例的该属性的值。这个该怎怎么做呢？ 首先，我们声明一个 Person 类，设置两个属性 Name ， Age 然后获取一个Person类的实例 然后通过字符串 \"Name…","frontmatter":{"description":null,"date":"April 25, 2014","title":"C#根据属性名称获取属性值"},"id":"c557f2c5-39f7-5d36-a105-5efae8f4bc37","fields":{"slug":"/C-根据属性名称获取属性值/"}},{"excerpt":"从去年9月份，不少Ubuntu 13.10用户遇到了屏幕亮度设置异常问题，无法调节亮度级别，尤其使用英特尔的平台。同样该系统BUG在最新开发的Ubuntu 14.04 (Trusty Tahr…","frontmatter":{"description":null,"date":"April 24, 2014","title":"Ubuntu 14.04 亮度BUG解决方案"},"id":"0d8fd5db-4e7a-569a-b6a1-7648a8e054a4","fields":{"slug":"/Ubuntu-14-04-亮度BUG解决方案/"}}]}},"pageContext":{"limit":10,"skip":30,"numPages":5,"currentPage":4}},"staticQueryHashes":["2786614800","2841359383","3828236571"]}